{
    "CompositingType": 4,
    "KPlugin": {
        "Description": "KWin Compositor plugin rendering through QPainter",
        "Description[ar]": "ملحقة لمؤلف كوين للتصيير عن طريق QPainter",
        "Description[az]": "QPainter vasitəsi ilə KWin birləşdirici əlavəsini formalaşdırmaq",
        "Description[ca@valencia]": "Connector del Compositor de KWin que renderitza a través de QPainter",
        "Description[ca]": "Connector del Compositor del KWin que renderitza a través del QPainter",
        "Description[da]": "KWin-compositorplugin som renderer igennem QPainter",
        "Description[de]": "KWin-Compositor-Modul zum Rendern mit QPainter",
        "Description[el]": "Αποτύπωση πρσοθέτου συνθέτη KWin μέσω QPainter",
        "Description[en_GB]": "KWin Compositor plugin rendering through QPainter",
        "Description[es]": "Complemento compositor de KWin renderizando mediante QPainter",
        "Description[et]": "KWini komposiitori plugin renderdamiseks QPainteri abil",
        "Description[eu]": "Kwin konposatzailearen plugina QPainter bidez errendatzen",
        "Description[fi]": "QPainterillä hahmontava KWin-koostajaliitännäinen",
        "Description[fr]": "Module du compositeur KWin effectuant le rendu avec QPainter",
        "Description[gl]": "Complemento de compositor de KWin que renderiza a través de QPainter.",
        "Description[hu]": "KWin összeállító bővítmény QPainter leképezéssel",
        "Description[id]": "Plugin KWin Compositor perenderan melalui QPainter",
        "Description[it]": "Estensione del compositore di KWin per la resa tramite QPainter",
        "Description[ko]": "QPainter로 렌더링하는 KWin 컴포지터 플러그인",
        "Description[lt]": "KWin kompozitoriaus priedas atvaizdavimui per QPainter",
        "Description[nl]": "KWin-compositor-plug-in rendering via QPainter",
        "Description[nn]": "KWin-samansetjartillegg som brukar QPainter",
        "Description[pl]": "Wtyczka kompozytora KWin wyświetlająca przez QPainter",
        "Description[pt]": "'Plugin' de Composição do KWin com desenho via QPainter",
        "Description[pt_BR]": "Plugin do compositor KWin renderizando pelo QPainter",
        "Description[ru]": "Отрисовка подключаемым модулем компоновщика KWin через QPainter",
        "Description[sk]": "Renderovací plugin kompozítora KWin cez QPainter",
        "Description[sl]": "Izrisovanje vstavka upravljalnika skladnje KWin preko QPainter-ja",
        "Description[sr@ijekavian]": "К‑винов прикључак слагача за рендеровање кроз QPainter",
        "Description[sr@ijekavianlatin]": "KWinov priključak slagača za renderovanje kroz QPainter",
        "Description[sr@latin]": "KWinov priključak slagača za renderovanje kroz QPainter",
        "Description[sr]": "К‑винов прикључак слагача за рендеровање кроз QPainter",
        "Description[sv]": "Kwin sammansättningsinsticksprogram återger via QPainter",
        "Description[tr]": "QPainter üzerinden KWin Dizgici eklentisi oluşturma",
        "Description[uk]": "Додаток засобу композиції KWin для обробки з використанням QPainter",
        "Description[vi]": "Phần cài cắm trình kết hợp KWin kết xuất thông qua QPainter",
        "Description[x-test]": "xxKWin Compositor plugin rendering through QPainterxx",
        "Description[zh_CN]": "使用 QPainter 渲染的 KWin 显示特效混合器插件",
        "Description[zh_TW]": "透過 QPainter 繪製 KWin 合成器附加元件",
        "Id": "KWinSceneQPainter",
        "Name": "SceneQPainter",
        "Name[ar]": "SceneQPainter",
        "Name[az]": "SceneQPainter",
        "Name[ca@valencia]": "SceneQPainter",
        "Name[ca]": "SceneQPainter",
        "Name[cs]": "SceneQPainter",
        "Name[da]": "SceneQPainter",
        "Name[de]": "SceneQPainter",
        "Name[el]": "SceneQPainter",
        "Name[en_GB]": "SceneQPainter",
        "Name[es]": "SceneQPainter",
        "Name[et]": "SceneQPainter",
        "Name[eu]": "SceneQPainter",
        "Name[fi]": "SceneQPainter",
        "Name[fr]": "SceneQPainter",
        "Name[gl]": "SceneQPainter",
        "Name[hu]": "SceneQPainter",
        "Name[ia]": "SceneQPainter",
        "Name[id]": "SceneQPainter",
        "Name[it]": "SceneQPainter",
        "Name[ko]": "SceneQPainter",
        "Name[lt]": "SceneQPainter",
        "Name[nl]": "SceneQPainter",
        "Name[nn]": "SceneQPainter",
        "Name[pa]": "ਸੀਨ-ਕਿਊ-ਪੇਂਟਰ",
        "Name[pl]": "QPainter sceny",
        "Name[pt]": "SceneQPainter",
        "Name[pt_BR]": "SceneQPainter",
        "Name[ro]": "SceneQPainter",
        "Name[ru]": "SceneQPainter",
        "Name[sk]": "SceneQPainter",
        "Name[sl]": "SceneQPainter",
        "Name[sr@ijekavian]": "QPainter-сцена",
        "Name[sr@ijekavianlatin]": "QPainter-scena",
        "Name[sr@latin]": "QPainter-scena",
        "Name[sr]": "QPainter-сцена",
        "Name[sv]": "Scen QPainter",
        "Name[tr]": "SceneQPainter",
        "Name[uk]": "SceneQPainter",
        "Name[vi]": "SceneQPainter",
        "Name[x-test]": "xxSceneQPainterxx",
        "Name[zh_CN]": "SceneQPainter",
        "Name[zh_TW]": "SceneQPainter"
    }
}
